ula_aula1109/simulation/qsim/ula_aula1109.msim.vcd
$comment
	File created using the following command:
		vcd file ula_aula1109.msim.vcd -direction
$end
$date
	Wed Sep 11 08:25:39 2019
$end
$version
	ModelSim Version 10.1d
$end
$timescale
	1ps
$end
$scope module ula_aula1109_vlg_vec_tst $end
$var reg 4 ! A [3:0] $end
$var reg 4 " B [3:0] $end
$var reg 2 # OPCODE [1:0] $end
$var wire 1 $ F [3] $end
$var wire 1 % F [2] $end
$var wire 1 & F [1] $end
$var wire 1 ' F [0] $end
$var wire 1 ( sampler $end
$scope module i1 $end
$var wire 1 ) gnd $end
$var wire 1 * vcc $end
$var wire 1 + unknown $end
$var tri1 1 , devclrn $end
$var tri1 1 - devpor $end
$var tri1 1 . devoe $end
$var wire 1 / Add2~0_combout $end
$var wire 1 0 Add2~4_combout $end
$var wire 1 1 B[0]~input_o $end
$var wire 1 2 B[1]~input_o $end
$var wire 1 3 B[2]~input_o $end
$var wire 1 4 B[3]~input_o $end
$var wire 1 5 F[0]~output_o $end
$var wire 1 6 F[1]~output_o $end
$var wire 1 7 F[2]~output_o $end
$var wire 1 8 F[3]~output_o $end
$var wire 1 9 OPCODE[1]~input_o $end
$var wire 1 : A[0]~input_o $end
$var wire 1 ; OPCODE[0]~input_o $end
$var wire 1 < Mux3~0_combout $end
$var wire 1 = Add3~0_combout $end
$var wire 1 > Mux3~1_combout $end
$var wire 1 ? A[1]~input_o $end
$var wire 1 @ Add2~1 $end
$var wire 1 A Add2~2_combout $end
$var wire 1 B Mux2~0_combout $end
$var wire 1 C Add3~1 $end
$var wire 1 D Add3~2_combout $end
$var wire 1 E Mux2~1_combout $end
$var wire 1 F A[2]~input_o $end
$var wire 1 G Mux1~0_combout $end
$var wire 1 H Add3~3 $end
$var wire 1 I Add3~4_combout $end
$var wire 1 J Mux1~1_combout $end
$var wire 1 K Mux1~2_combout $end
$var wire 1 L A[3]~input_o $end
$var wire 1 M Mux0~0_combout $end
$var wire 1 N Add2~3 $end
$var wire 1 O Add2~5 $end
$var wire 1 P Add2~6_combout $end
$var wire 1 Q Add3~5 $end
$var wire 1 R Add3~6_combout $end
$var wire 1 S Mux0~1_combout $end
$var wire 1 T Mux0~2_combout $end
$upscope $end
$upscope $end
$enddefinitions $end
#0
$dumpvars
b1100 !
b11 "
b0 #
1'
0&
1%
1$
x(
0)
1*
x+
1,
1-
1.
1/
10
11
12
03
04
15
06
17
18
09
0:
0;
1<
1=
1>
0?
0@
1A
0B
0C
0D
0E
1F
0G
1H
0I
0J
1K
1L
0M
1N
0O
1P
1Q
1R
0S
1T
$end
#50000
b1000 !
b1001 !
b1011 "
14
1:
0F
0(
0R
0P
1B
1C
0=
0<
1@
0/
0Q
1I
00
0K
1D
0N
0A
1R
07
0%
1E
0>
10
16
05
1&
0'
#100000
b1 !
b101 !
b100 !
0:
1F
0L
1(
0B
0C
1=
1<
0@
1/
1Q
0I
1O
00
0R
1P
1K
0T
0D
1N
1A
1R
0P
17
08
1%
0$
0E
1>
0O
10
06
15
0&
1'
1P
#150000
b110 !
b11 "
b111 !
04
1:
1?
0(
0R
0P
1M
1G
1C
0=
0<
1@
0/
1D
0N
0A
0H
0D
1A
1O
00
1T
0K
0>
1I
1P
18
07
05
1$
0%
0'
#200000
b111 "
b1 #
b1111 !
b1011 !
0F
1L
1;
13
1(
0Q
1R
0P
1S
1J
1B
1K
0T
0R
17
08
1%
0$
1T
0K
1E
18
07
16
1$
0%
1&
#250000
b110 "
b1010 !
b10 "
b1110 !
0:
1F
01
03
0(
0B
1<
0@
1Q
1K
0A
1R
17
1%
0E
1>
06
15
0&
1'
#300000
b0 "
b1100 !
b1000 !
0?
0F
02
1(
0M
0G
1B
1N
0I
0O
10
0K
00
1P
07
0%
0T
1K
1E
08
17
16
0$
1%
1&
#350000
b0 !
b1 !
b100 "
b110 "
b11 !
b111 !
12
13
1:
1?
1F
0L
0(
0N
1O
1M
1G
1=
0<
1/
0R
0P
0K
1T
10
1P
07
18
0%
1$
0T
1K
0>
08
17
05
0$
1%
0'
#400000
b11 #
b10 #
b110 !
b10 "
b10 !
03
0:
0F
0;
19
1(
0O
0M
0G
0B
0=
1<
0/
1T
0E
0P
0<
18
06
1$
0&
1>
0S
15
1'
0>
05
0'
0T
08
0$
#450000
b1010 "
b0 !
0?
14
0(
1H
1D
1N
1A
1R
1P
0Q
1I
00
1S
1E
0R
0J
16
1&
1T
18
1$
0K
07
0%
#500000
b1011 "
b1001 "
b1 !
b101 !
b1 "
1:
1F
11
02
04
1(
1@
1Q
0I
10
0H
0D
0A
1R
0P
1A
0R
1J
1I
0S
0E
06
0&
1E
1K
0T
16
17
08
1&
1%
0$
#550000
b1101 !
b101 "
b100 "
b1001 !
01
13
0F
1L
0(
1=
0@
1/
0Q
1R
1P
0A
1<
0R
1S
0E
1>
1T
06
15
18
0&
1'
1$
#600000
b11 #
1;
1(
0S
1M
1G
1B
0<
0T
08
0$
#650000
b1011 !
b110 "
b11 !
12
1?
0L
0(
0N
1R
0P
1O
00
1S
1P
1T
18
1$
#700000
b10 !
b10 "
03
0:
1(
1Q
0I
0O
10
0=
0/
0R
0J
0P
0>
0S
05
0'
0K
07
0%
0T
08
0$
#750000
b110 !
b0 "
b100 "
02
13
1F
0(
1D
1N
1A
1O
00
1P
1E
16
1&
#800000
b1 #
b1100 "
b0 #
b100 !
b1100 !
b1101 !
b1110 "
b1010 "
1:
0?
1L
12
03
14
0;
09
1(
0M
0G
1=
1/
1H
1I
0O
10
0I
0P
1T
1K
18
17
1$
1%
#850000
b1001 !
b10 "
b1011 !
b110 "
13
04
1?
0F
0(
0Q
1R
1P
1G
0H
0D
0B
0N
0A
0K
0R
1I
1O
00
07
0%
1K
0E
0P
17
06
1%
0&
#900000
b100 "
b1111 !
b1100 "
b1000 "
1F
02
03
14
1(
1M
1Q
1D
1N
1A
1R
1P
0K
0R
0O
10
07
0%
0T
0P
08
0$
#950000
b111 !
b110 !
b100 !
b1010 "
b0 !
12
0:
0?
0F
0L
0(
1H
0M
0G
0=
1<
0/
0I
00
1R
1P
1K
1T
0Q
1I
17
18
1%
1$
0T
0K
1>
0R
08
07
15
0$
0%
1'
